<?xml version='1.0' encoding='UTF-8'?>
<glyph format="1" name="at">
  <advance width="913" />
  <unicode hex="0040" />
  <outline>
    <contour>
      <point name="hintSet0000" type="line" x="488" y="159" />
      <point x="473" y="142" />
      <point x="459" y="136" />
      <point type="curve" x="445" y="136" />
      <point x="413" y="136" />
      <point x="386" y="164" />
      <point type="curve" x="386" y="225" />
      <point x="386" y="275" />
      <point x="398" y="320" />
      <point type="curve" x="422" y="358" />
      <point x="445" y="394" />
      <point x="472" y="408" />
      <point type="curve" x="492" y="408" />
      <point x="504" y="408" />
      <point x="515" y="405" />
      <point type="curve" x="526" y="394" />
    </contour>
    <contour>
      <point type="line" x="679" y="458" />
      <point type="line" x="650" y="476" />
      <point type="line" x="587" y="441" />
      <point x="563" y="468" />
      <point x="527" y="487" />
      <point type="curve" x="482" y="487" />
      <point x="433" y="487" />
      <point x="368" y="460" />
      <point type="curve" x="323" y="409" />
      <point x="274" y="354" />
      <point x="237" y="268" />
      <point type="curve" x="237" y="188" />
      <point x="237" y="88" />
      <point x="291" y="37" />
      <point type="curve" x="359" y="37" />
      <point x="409" y="37" />
      <point x="455" y="56" />
      <point type="curve" x="497" y="118" />
      <point name="hintSet0014" x="519" y="70" />
      <point x="569" y="37" />
      <point type="curve" x="648" y="37" />
      <point x="790" y="37" />
      <point x="873" y="158" />
      <point type="curve" x="873" y="320" />
      <point x="873" y="525" />
      <point x="729" y="662" />
      <point type="curve" x="524" y="662" />
      <point x="233" y="662" />
      <point x="40" y="442" />
      <point type="curve" x="40" y="200" />
      <point x="40" y="-18" />
      <point x="187" y="-157" />
      <point type="curve" x="416" y="-157" />
      <point x="514" y="-157" />
      <point x="597" y="-127" />
      <point type="curve" x="662" y="-80" />
      <point type="line" x="629" y="-25" />
      <point x="572" y="-59" />
      <point x="494" y="-74" />
      <point type="curve" x="431" y="-74" />
      <point x="257" y="-74" />
      <point x="152" y="30" />
      <point type="curve" x="152" y="199" />
      <point x="152" y="412" />
      <point x="300" y="581" />
      <point type="curve" x="513" y="581" />
      <point x="673" y="581" />
      <point x="775" y="505" />
      <point type="curve" x="775" y="320" />
      <point x="775" y="172" />
      <point x="732" y="102" />
      <point type="curve" x="670" y="102" />
      <point x="634" y="102" />
      <point x="624" y="122" />
      <point type="curve" x="638" y="206" />
    </contour>
  </outline>
  <lib>
    <dict>
      <key>com.adobe.type.autohint</key>
      <data>
        <hintSetList id="3f937f509d3b1abc466b6dff8606bc9e108ac8f0d7b05b1a483788e0e3645c3b3438e0cfc2ac3317a712c969f87199207fb3c4cdfa5575ba087140196ec1d1d7">
          <hintset pointTag="hintSet0000">
            <hstem pos="-157" width="83" />
            <hstem pos="37" width="99" />
            <hstem pos="408" width="79" />
            <hstem pos="581" width="81" />
            <vstem pos="40" width="112" />
            <vstem pos="237" width="149" />
            <vstem pos="775" width="98" />
          </hintset>
          <hintset pointTag="hintSet0014">
            <hstem pos="-157" width="83" />
            <hstem pos="37" width="65" />
            <hstem pos="408" width="79" />
            <hstem pos="581" width="81" />
            <vstem pos="40" width="112" />
            <vstem pos="775" width="98" />
          </hintset>
        </hintSetList>
      </data>
    </dict>
  </lib>
</glyph>