<?xml version="1.0" encoding="UTF-8"?>
<glyph name="abreve" format="1">
  <advance width="531"/>
  <unicode hex="0103"/>
  <outline>
    <component base="a"/>
    <component base="brevecmb" xOffset="266"/>
  </outline>
</glyph>
